name: User
description: ''
endpoints:
  -
    httpMethods:
      - GET
    uri: api/users
    metadata:
      groupName: User
      groupDescription: ''
      subgroup: ''
      subgroupDescription: ''
      title: 'get users'
      description: 'get all users'
      authenticated: false
      custom: []
    headers:
      Content-Type: application/json
      Accept: application/json
    urlParameters: []
    cleanUrlParameters: []
    queryParameters:
      page:
        name: page
        description: 'for pagination'
        required: false
        example: 7
        type: integer
        enumValues: []
        exampleWasSpecified: false
        nullable: false
        custom: []
    cleanQueryParameters:
      page: 7
    bodyParameters: []
    cleanBodyParameters: []
    fileParameters: []
    responses:
      -
        status: 200
        content: '{"data":[{"id":1,"name":"Zack Gleichner III","email":"nbauch@example.org","email_verified_at":"2025-02-04T13:11:04.000000Z"}],"links":{"first":"\/?page=1","last":"\/?page=2","prev":null,"next":"\/?page=2"},"meta":{"current_page":1,"from":1,"last_page":2,"links":[{"url":null,"label":"&laquo; Previous","active":false},{"url":"\/?page=1","label":"1","active":true},{"url":"\/?page=2","label":"2","active":false},{"url":"\/?page=2","label":"Next &raquo;","active":false}],"path":"\/","per_page":1,"to":1,"total":2}}'
        headers: []
        description: ''
        custom: []
    responseFields: []
    auth: []
    controller: null
    method: null
    route: null
    custom: []
  -
    httpMethods:
      - POST
    uri: api/users
    metadata:
      groupName: User
      groupDescription: ''
      subgroup: ''
      subgroupDescription: ''
      title: 'create user'
      description: 'create a new user'
      authenticated: true
      custom: []
    headers:
      Content-Type: application/json
      Accept: application/json
    urlParameters: []
    cleanUrlParameters: []
    queryParameters: []
    cleanQueryParameters: []
    bodyParameters:
      name:
        name: name
        description: ''
        required: true
        example: quas
        type: string
        enumValues: []
        exampleWasSpecified: false
        nullable: false
        custom: []
      email:
        name: email
        description: 'Must be a valid email address.'
        required: true
        example: oschmeler@example.net
        type: string
        enumValues: []
        exampleWasSpecified: false
        nullable: false
        custom: []
      email_verified_at:
        name: email_verified_at
        description: ''
        required: false
        example: null
        type: string
        enumValues: []
        exampleWasSpecified: false
        nullable: true
        custom: []
      password:
        name: password
        description: ''
        required: true
        example: officia
        type: string
        enumValues: []
        exampleWasSpecified: false
        nullable: false
        custom: []
      remember_token:
        name: remember_token
        description: ''
        required: false
        example: dolorum
        type: string
        enumValues: []
        exampleWasSpecified: false
        nullable: true
        custom: []
    cleanBodyParameters:
      name: quas
      email: oschmeler@example.net
      password: officia
      remember_token: dolorum
    fileParameters: []
    responses:
      -
        status: 200
        content: '{"data":{"id":1,"name":"Jan Mitchell","email":"lane57@example.org","email_verified_at":"2025-02-04T13:11:04.000000Z"}}'
        headers: []
        description: 'when everything is okay'
        custom: []
      -
        status: 422
        content: '{"message":"some errors"}'
        headers: []
        description: ''
        custom: []
    responseFields: []
    auth: []
    controller: null
    method: null
    route: null
    custom: []
  -
    httpMethods:
      - GET
    uri: 'api/users/{id}'
    metadata:
      groupName: User
      groupDescription: ''
      subgroup: ''
      subgroupDescription: ''
      title: 'get user'
      description: 'get a single user'
      authenticated: false
      custom: []
    headers:
      Content-Type: application/json
      Accept: application/json
    urlParameters:
      id:
        name: id
        description: 'The ID of the user.'
        required: true
        example: 14
        type: integer
        enumValues: []
        exampleWasSpecified: false
        nullable: false
        custom: []
    cleanUrlParameters:
      id: 14
    queryParameters: []
    cleanQueryParameters: []
    bodyParameters: []
    cleanBodyParameters: []
    fileParameters: []
    responses:
      -
        status: 200
        content: '{"data":{"id":1,"name":"Furman Renner PhD","email":"thiel.colton@example.com","email_verified_at":"2025-02-04T13:11:04.000000Z"}}'
        headers: []
        description: 'when everything is okay'
        custom: []
    responseFields: []
    auth: []
    controller: null
    method: null
    route: null
    custom: []
  -
    httpMethods:
      - PUT
      - PATCH
    uri: 'api/users/{id}'
    metadata:
      groupName: User
      groupDescription: ''
      subgroup: ''
      subgroupDescription: ''
      title: 'update user'
      description: 'update a specific user'
      authenticated: false
      custom: []
    headers:
      Content-Type: application/json
      Accept: application/json
    urlParameters:
      id:
        name: id
        description: 'The ID of the user.'
        required: true
        example: 2
        type: integer
        enumValues: []
        exampleWasSpecified: false
        nullable: false
        custom: []
    cleanUrlParameters:
      id: 2
    queryParameters: []
    cleanQueryParameters: []
    bodyParameters:
      name:
        name: name
        description: ''
        required: true
        example: voluptates
        type: string
        enumValues: []
        exampleWasSpecified: false
        nullable: false
        custom: []
      email:
        name: email
        description: 'Must be a valid email address.'
        required: true
        example: xrath@example.org
        type: string
        enumValues: []
        exampleWasSpecified: false
        nullable: false
        custom: []
      email_verified_at:
        name: email_verified_at
        description: ''
        required: false
        example: null
        type: string
        enumValues: []
        exampleWasSpecified: false
        nullable: true
        custom: []
      password:
        name: password
        description: ''
        required: true
        example: dolor
        type: string
        enumValues: []
        exampleWasSpecified: false
        nullable: false
        custom: []
      remember_token:
        name: remember_token
        description: ''
        required: false
        example: quasi
        type: string
        enumValues: []
        exampleWasSpecified: false
        nullable: true
        custom: []
    cleanBodyParameters:
      name: voluptates
      email: xrath@example.org
      password: dolor
      remember_token: quasi
    fileParameters: []
    responses:
      -
        status: 200
        content: '{"data":{"id":1,"name":"Dr. Taurean Abbott I","email":"lucio19@example.org","email_verified_at":"2025-02-04T13:11:04.000000Z"}}'
        headers: []
        description: 'when everything is okay'
        custom: []
    responseFields: []
    auth: []
    controller: null
    method: null
    route: null
    custom: []
  -
    httpMethods:
      - DELETE
    uri: 'api/users/{id}'
    metadata:
      groupName: User
      groupDescription: ''
      subgroup: ''
      subgroupDescription: ''
      title: 'delete user'
      description: 'delete a specific user'
      authenticated: false
      custom: []
    headers:
      Content-Type: application/json
      Accept: application/json
    urlParameters:
      id:
        name: id
        description: 'The ID of the user.'
        required: true
        example: 9
        type: integer
        enumValues: []
        exampleWasSpecified: false
        nullable: false
        custom: []
    cleanUrlParameters:
      id: 9
    queryParameters: []
    cleanQueryParameters: []
    bodyParameters: []
    cleanBodyParameters: []
    fileParameters: []
    responses:
      -
        status: 204
        content: null
        headers: []
        description: ''
        custom: []
    responseFields: []
    auth: []
    controller: null
    method: null
    route: null
    custom: []
